jsonFlickrApi(
{
    "photos": {
        "page":1,
        "pages":5,
        "perpage":100,
        "total":500,
        "photo": [
                    {
                        "id":"50849744661",
                        "owner":"132822455@N05",
                        "secret":"0c6a7b745c",
                        "server":"65535",
                        "farm":66,
                        "title":"In Awe and wonder",
                        "ispublic":1,
                        "isfriend":0,
                        "isfamily":0
                        
                    },
                    {
                        "id":"50848505381",
                        "owner":"66460484@N06",
                        "secret":"9f3134fe0c",
                        "server":"65535",
                        "farm":66,
                        "title":"in the middle of nowhere",
                        "ispublic":1,
                        "isfriend":0,
                        "isfamily":0
                        
                    },
                    {
                        "id":"50847195373",
                        "owner":"126933216@N03",
                        "secret":"0bc7b4ebec",
                        "server":"65535",
                        "farm":66,
                        "title":"Ice formations on the reef",
                        "ispublic":1,
                        "isfriend":0,
                        "isfamily":0
                        
                    }
            ]
        },
    "extra": {
        "explore_date":"2021-01-18",
        "next_prelude_interval":69220
            },
    "stat":"ok"
}
)
